[
  {
    "id": "src.main",
    "name": "main",
    "stats": {
      "size": 12838,
      "gzipSize": 4319
    }
  },
  {
    "id": "node_modules.main",
    "name": "node_modules [main]",
    "stats": {
      "size": 113084,
      "gzipSize": 22485
    }
  },
  {
    "id": "node_modules.async",
    "name": "node_modules [async]",
    "stats": {
      "size": 12686,
      "gzipSize": 4356
    }
  },
  {
    "id": "atlaskit.media.main",
    "name": "main",
    "stats": {
      "size": 10954,
      "gzipSize": 2859
    }
  },
  {
    "id": "atlaskit.media.async",
    "name": "async",
    "stats": {
      "size": 1684,
      "gzipSize": 724
    }
  },
  {
    "id": "combined.main",
    "name": "main",
    "stats": {
      "size": 136386,
      "gzipSize": 29562
    }
  },
  {
    "id": "combined.async",
    "name": "async",
    "stats": {
      "size": 14310,
      "gzipSize": 4876
    }
  }
]