[
  {
    "id": "src.main",
    "name": "main",
    "stats": {
      "size": 120802,
      "gzipSize": 31561
    }
  },
  {
    "id": "src.async",
    "name": "async",
    "stats": {
      "size": 16302,
      "gzipSize": 3727
    }
  },
  {
    "id": "node_modules.main",
    "name": "node_modules [main]",
    "stats": {
      "size": 335032,
      "gzipSize": 89609
    }
  },
  {
    "id": "node_modules.async",
    "name": "node_modules [async]",
    "stats": {
      "size": 41796,
      "gzipSize": 13316
    }
  },
  {
    "id": "atlaskit.core.main",
    "name": "main",
    "stats": {
      "size": 303423,
      "gzipSize": 64737
    }
  },
  {
    "id": "atlaskit.core.async",
    "name": "async",
    "stats": {
      "size": 14789,
      "gzipSize": 3034
    }
  },
  {
    "id": "atlaskit.elements.main",
    "name": "main",
    "stats": {
      "size": 269,
      "gzipSize": 170
    }
  },
  {
    "id": "atlaskit.media.main",
    "name": "main",
    "stats": {
      "size": 217626,
      "gzipSize": 50307
    }
  },
  {
    "id": "atlaskit.media.async",
    "name": "async",
    "stats": {
      "size": 592890,
      "gzipSize": 147636
    }
  },
  {
    "id": "combined.main",
    "name": "main",
    "stats": {
      "size": 975339,
      "gzipSize": 240777
    }
  },
  {
    "id": "combined.async",
    "name": "async",
    "stats": {
      "size": 665494,
      "gzipSize": 166625
    }
  }
]